#Difficulty	Type	English	German
1	1	Animal Walk	Animal Walk
1	1	Cartwheel	Rad
1	6	Hang	Hängen
1	1	High Straight Jump	Strecksprung
1	1	Jog a lap around the spot	Eine Runde Joggen
1	1	Monkey Step	Monkey Step
1	4	Monkey Step under Rail	Monkey Step unterm Geländer
1	7	Muscle-Up	Muscle-Up
1	7	Pull-Up	Klimmzug
1	1	Push-Up	Liegestütz
1	1	Raupe	Raupe
1	1	Short Sprint	Kurzer Sprint
1	1	Squat	Kniebeuge
2	6	Arm Jump	Armsprung
2	3	Basic Vault	Basic Vault
2	6	Climb-Up	Climb-Up
2	3	Demi-Tour	Demi-Tour
2	3	Fake Reverse	Fake Reverse
2	3	Lazy	Lazy
2	4	Pass under Bar	Unterm Geländer durch
2	2	Precision Jump	Präzi
2	3	Reverse	Reverse
2	1	Roll Backwards	Rückwärtsrolle
2	3	Sit Dash	Sitzdash
2	3	Speed Vault	Speed Vault
2	4	Underbar	Durchbruch
2	6	Wallrun	Wallrun
3	2	180 Precision	180 Präzi
3	3	Armjump to Rail	Armsprung ans Geländer
3	3	Backwards Lazy	Rückwärts Lazy
3	3	Cat	Katze
3	3	Dash	Dash
3	8	Dynamo	Dynamo
3	3	Gate Vault	Gate Vault
3	3	Jump over Rail	Sprung übers Geländer
3	7	Lache	Lache
3	3	Lazy Back	Lazy zurück
3	3	Lazy over Butt	Lazy übern Po
3	6	Return	Return
3	1	Roll	Rolle
3	3	Speed Step	Speed Step
3	3	Support Get-Up	Aufschwinger
4	3	180 Get-Up	180 Aufsprung
4	2	360 Precision	360 Präzi
4	3	540 Lazy	540 Lazy
4	3	Almost Lazy	Fast Lazy
4	3	Backwards Speed Step	Rückwärts Speed Step
4	7	Butt-Swing	Poschwinger
4	3	Dive Roll	Flugrolle
4	8	Dynamo Down	Dynamo runter
4	3	Lazy into Demi-Tour	Lazy in Demi-Tour
4	8	Polio	Polio
4	3	Rail Arm Jump	Geländer-Armsprung
4	3	Rail Fall-Back	Geländer-Zurückfallen
4	3	Rail-Sit Get-Up	Aufsitzer
4	3	Side Jump over Rail	Seitsprung übers Geländer
4	2	Strides	Strides
4	3	Thief Vault	Thief Vault
5	3	180 Get-Up Speed Step	180 Aufsprung Speed Step
5	3	180 Get-Up Spin down	180 Aufsprung Spin down
5	3	360 Lazy	360 Lazy
5	3	Animal Walk on Rail	Animal Walk aufm Geländer
5	3	Barspin	Barspin
5	3	Barspin into 360 Lazy	Barspin in 360 Lazy
5	3	Barspin into Hook	Barspin in Hook
5	3	Barspin into Sit	Barspin ins Sitzen
5	3	Barspin into Support	Barspin in Stütz
5	3	Cartwheel over Rail	Rad übers Geländer
5	3	Cartwheel Rail Boost	Rad mit Geländer-Boost
5	3	Cartwheel Rail Leg-Spin	Rad mit Geländer-Bein-Spin
5	3	Fake Reverse Frisbee	Fake Reverse Frisbee
5	4	Glide Underbar	Gleitdurchbruch
5	3	Helikoptero	Helikoptero
5	3	Helikoptero to Rail-Lean Tornado-Kick 2	Helikoptero zu Geländer-Tornado 2
5	4	Hook Fall	Hook Fall
5	3	Hook Spin	Hook Spin
5	3	Hook to Sit	Hook zu Sitzen
5	3	Hook to Support	Hook zu Stütz
5	3	Koala	Koala
5	3	Lazy Back to Pushup-Landing	Lazy zurück zu Liegestütz-Landung
5	3	Lazy Spin	Lazy Spin
5	3	Lazy Twist-In	Lazy Eindreher
5	4	Lurchbruch	Lurchbruch
5	3	Monkey Step on Rail	Monkey Step aufm Geländer
5	3	Rail Slide	Geländerslide
5	4	Rail Spin-through	Durchdrehen
5	4	Rail Spin-through to Get-Up	Durchdrehen zu Aufschwinger
5	3	Rail-Floor Handspring	Geländer-Boden Handstandüberschlag
5	3	Rail-Floor Handspring and Back	Geländer-Boden Handstandüberschlag und zurück
5	3	Rail-Lean Tornado-Kick 2	Geländer-Tornado 2
5	3	Rail-Lean Tornado-Kick 3	Geländer-Tornado 3
5	3	Reverse into Demi-Tour	Reverse in Demi-Tour
5	3	Roll over Rail	Rolle übers Geländer
5	3	Sit to 360-Out	Sitzen zu 360-Abgang
5	1	Spanish Corner Glide	Spanier-Eckgleiten
5	1	Spanish Glide	Spanier-Gleiten
5	3	Speed Step Fake	Speed Step Fake
5	3	Speed Step Fake x2	Speed Step Fake x2
5	3	Spin next to the Rail	Dreher am Geländer
5	4	Spinning Support Get-Up	Beindreher Aufschwung
5	3	Support 180 Get-Up	Stütz 180 Aufschwinger
5	3	Support Barspin	Stütz Barspin
5	3	Support Demi-Tour	Stütz Demi-Tour
5	3	Support Demi-Tour into Support	Stütz Demi-Tour in Stütz
5	3	Support Reverse	Stütz Reverse
5	3	Thief Twist-In	Thief Eindreher
5	3	Thigh Rail-Spin to Sit	Schenkel-Drehsitzer
6	1	B-Kick Groundroll	B-Kick Bodenrolle
6	1	B-Twist	B-Twist
6	1	Backflip	Backflip
6	1	Frontflip	Frontflip
6	7	Half Swing Gainer	Halber Swing Gainer
6	1	Handspring	Handstandüberschlag
6	1	Kick-Up	Kick-Up
6	3	Rail Handspring	Geländer-Handstandüberschlag
6	1	Sideflip	Sideflip
6	7	Swing Gainer	Swing Gainer
6	1	Tornado Kick	Tornado Kick
6	4	Wallspin	Wallspin
6	1	Webster	Webster
7	1	Arabian	Arabian
7	1	Back Full	Back Full
7	1	Front 180	Front 180
7	1	Front Full	Front Full
7	1	Raiz	Raiz
7	1	Touchdown Raiz	Touchdown Raiz
8	1	B-Kick	B-Kick
8	1	Ballerina	Ballerina
8	1	Fake Cork	Fake Cork
8	1	Fake Flip	Fake Flip
8	1	Get-Up Moon Kick	Aufsteher Mondkick
8	1	Ground Bug-Spin	Boden-Käferspin
8	3	Lazy Fake	Lazy Fake
8	3	Lazy Fake Scoot	Lazy Fake Scoot
8	1	Pose	Rumposen
8	1	Represent	Represent
