#Weight	Secret	English	German
20	false	Use only one leg.	Alles auf nur einem Bein.
20	false	Use only one hand.	Alles mit nur einer Hand.
20	false	Do everything on your bad side.	Alles nur auf der schlechteren Seite.
20	false	Do everything backwards.	Alles rückwärts machen.
20	false	With closed eyes.	Mit geschlossenen Augen.
20	false	Add unnecessary spins.	Mit unnötig vielen Drehungen.
20	false	Keep your eyes on one spot.	Den Blick auf eine Sache fixiert halten.
20	false	Move extremely silently.	Ohne Geräusche zu machen.
20	false	With only one breath.	In nur einem Atemzug.
4	true	Without pants.	Ohne Hose.
3	true	With your nose itching.	Mit juckender Nase.
3	true	Eating a banana.	Eine Banane essend.
6	true	Thinking about the Aux Castle Shizzlers.	In Gedanken bei den Aux Castle Shizzlern.
5	true	Yearning for the Bois and Grils from Aux Castle.	Im Herzen bei den Bois und Grils von Aux Castle.
4	true	Take a train to Augsburg straight after.	Danach direkt in einen Zug nach Augsburg steigen.
3	true	Entering the Church of the Biceps afterwards.	Ehrfürchtig dem Herrn des Bizeps danken.
3	true	No Radler, just this once.	Ausnahmsweise ohne Radler.
3	true	Using all of your neck.	Mit vollem Nackeneinsatz.
3	true	Give a compliment to someone after every move.	Nach jedem Move jemandem ein Kompliment machen.
